[
  {
    "id": 0,
    "company": "Brakus and Sons",
    "contact": "Marco Ziemann Jr.",
    "email": "veda_vonrueden47@yahoo.com",
    "phone": "0703048306",
    "country": "Croatia",
    "city": "Lake Carrie",
    "street": "50798 Rudy Plaza",
    "type": "Charity"
  },
  {
    "id": 1,
    "company": "Dickens and Sons",
    "contact": "Henrietta Johnson",
    "email": "cyril.kirlin@yahoo.com",
    "phone": "0770777435",
    "country": "Mongolia",
    "city": "West Emelie",
    "street": "979 Legros Trail",
    "type": "Charity"
  },
  {
    "id": 2,
    "company": "Crooks, Gibson and Ferry",
    "contact": "Ms. Marjorie Harvey",
    "email": "sanford.ritchie@hotmail.com",
    "phone": "0768838403",
    "country": "Ireland",
    "city": "Willshire",
    "street": "1218 Schinner Junctions",
    "type": "Charity"
  },
  {
    "id": 3,
    "company": "Barton - Rice",
    "contact": "Duane Champlin",
    "email": "simone_kunde@hotmail.com",
    "phone": "0755528195",
    "country": "Trinidad and Tobago",
    "city": "Port Alek",
    "street": "15800 Isidro Shore",
    "type": "Public"
  },
  {
    "id": 4,
    "company": "Schinner and Sons",
    "contact": "Margarita Ferry",
    "email": "margie2@yahoo.com",
    "phone": "0749774244",
    "country": "Norfolk Island",
    "city": "West Magnolia",
    "street": "7177 Dameon Glens",
    "type": "Charity"
  },
  {
    "id": 5,
    "company": "Reichert - Cormier",
    "contact": "Mrs. Oliver Romaguera",
    "email": "dwight_senger@yahoo.com",
    "phone": "0788353295",
    "country": "Nigeria",
    "city": "Malachimouth",
    "street": "84990 Toy Oval",
    "type": "Charity"
  },
  {
    "id": 6,
    "company": "Terry - Rolfson",
    "contact": "Alberto Schiller",
    "email": "guadalupe45@yahoo.com",
    "phone": "0715358056",
    "country": "Uganda",
    "city": "Lisaport",
    "street": "6392 Blaze Mews",
    "type": "Charity"
  },
  {
    "id": 7,
    "company": "Ondricka, Hettinger and Schuster",
    "contact": "Dr. Beatrice Kohler",
    "email": "shawna.schiller36@hotmail.com",
    "phone": "0707786520",
    "country": "Cyprus",
    "city": "South Belle",
    "street": "31264 Herman Pines",
    "type": "Franchise"
  },
  {
    "id": 8,
    "company": "Farrell and Sons",
    "contact": "Thomas Kuhic",
    "email": "odell.labadie42@hotmail.com",
    "phone": "0732822361",
    "country": "Netherlands Antilles",
    "city": "Port Deborah",
    "street": "986 Marlene Spur",
    "type": "Franchise"
  },
  {
    "id": 9,
    "company": "Osinski - Kunze",
    "contact": "Shaun Frami",
    "email": "mohamed.boyer32@hotmail.com",
    "phone": "0758623209",
    "country": "Dominican Republic",
    "city": "Lake Tia",
    "street": "51380 Mante Branch",
    "type": "Charity"
  },
  {
    "id": 10,
    "company": "Wuckert - Pagac",
    "contact": "Jacob Schinner",
    "email": "sonny.mann@hotmail.com",
    "phone": "0790171438",
    "country": "Zimbabwe",
    "city": "West Xander",
    "street": "4889 Lesch Trafficway",
    "type": "Franchise"
  },
  {
    "id": 11,
    "company": "Weber - Collins",
    "contact": "Felix Nader",
    "email": "sandra_macejkovic48@yahoo.com",
    "phone": "0726001847",
    "country": "Uruguay",
    "city": "Port Violaton",
    "street": "736 Ardella Fords",
    "type": "Franchise"
  },
  {
    "id": 12,
    "company": "Keebler - Schuppe",
    "contact": "Ernestine Hilll",
    "email": "princess_gusikowski19@yahoo.com",
    "phone": "0744603351",
    "country": "Virgin Islands, U.S.",
    "city": "Konopelskiview",
    "street": "3114 Becker Crest",
    "type": "Public"
  },
  {
    "id": 13,
    "company": "Kozey - Nolan",
    "contact": "Clayton Franecki V",
    "email": "ericka.hegmann@yahoo.com",
    "phone": "0790314206",
    "country": "Indonesia",
    "city": "East Mabelleburgh",
    "street": "037 Helga Junctions",
    "type": "Public"
  },
  {
    "id": 14,
    "company": "Runolfsson LLC",
    "contact": "Gary Balistreri",
    "email": "ashlee_quigley95@yahoo.com",
    "phone": "0787150489",
    "country": "New Zealand",
    "city": "West Jefferyborough",
    "street": "1343 Alisha Via",
    "type": "Franchise"
  },
  {
    "id": 15,
    "company": "Hartmann, Gutmann and Little",
    "contact": "Bruce Crona",
    "email": "diana_ryan@yahoo.com",
    "phone": "0717853690",
    "country": "Mayotte",
    "city": "New Mafalda",
    "street": "1044 Considine Garden",
    "type": "Private"
  },
  {
    "id": 16,
    "company": "Williamson and Sons",
    "contact": "Dwight Gerlach",
    "email": "merl_schmidt85@gmail.com",
    "phone": "0772721618",
    "country": "Equatorial Guinea",
    "city": "Blockshire",
    "street": "654 Vladimir Oval",
    "type": "Franchise"
  },
  {
    "id": 17,
    "company": "Mann and Sons",
    "contact": "Kerry Shields",
    "email": "willis.mccullough@gmail.com",
    "phone": "0725664265",
    "country": "China",
    "city": "Ariannaville",
    "street": "3086 Frida Brook",
    "type": "Public"
  },
  {
    "id": 18,
    "company": "Collins - Effertz",
    "contact": "Dora Bahringer",
    "email": "victoria.wisozk59@hotmail.com",
    "phone": "0781123402",
    "country": "French Polynesia",
    "city": "Schneidermouth",
    "street": "13543 Howell Crescent",
    "type": "Co-operative"
  },
  {
    "id": 19,
    "company": "Welch Group",
    "contact": "Stella Walsh",
    "email": "sterling.moen@yahoo.com",
    "phone": "0725756904",
    "country": "Guyana",
    "city": "Martabury",
    "street": "99232 Tyree Lodge",
    "type": "Co-operative"
  },
  {
    "id": 20,
    "company": "Waters LLC",
    "contact": "Virginia Emard",
    "email": "gene23@hotmail.com",
    "phone": "0738698296",
    "country": "United Kingdom",
    "city": "Johnstonshire",
    "street": "934 Stehr Loaf",
    "type": "Franchise"
  },
  {
    "id": 21,
    "company": "Boyer, Labadie and Crist",
    "contact": "Freda Jones",
    "email": "keanu.rodriguez94@hotmail.com",
    "phone": "0720580746",
    "country": "Serbia",
    "city": "Port Carroll",
    "street": "338 Kurt Stream",
    "type": "Private"
  },
  {
    "id": 22,
    "company": "Reynolds Inc",
    "contact": "Della Okuneva",
    "email": "rosie.kunze@yahoo.com",
    "phone": "0789912342",
    "country": "Moldova",
    "city": "Nelsburgh",
    "street": "57829 Name Brook",
    "type": "Public"
  },
  {
    "id": 23,
    "company": "Pouros, Keebler and Stokes",
    "contact": "Patsy Bode",
    "email": "tyrese37@hotmail.com",
    "phone": "0765714878",
    "country": "Antarctica (the territory South of 60 deg S)",
    "city": "West Rashad",
    "street": "9126 Feest Squares",
    "type": "Franchise"
  },
  {
    "id": 24,
    "company": "Terry - Ratke",
    "contact": "Norma Kessler",
    "email": "branson55@yahoo.com",
    "phone": "0780692072",
    "country": "Solomon Islands",
    "city": "Port Eliseofort",
    "street": "626 Hermiston Port",
    "type": "Co-operative"
  },
  {
    "id": 25,
    "company": "Yundt and Sons",
    "contact": "Rafael Hintz",
    "email": "dane_welch@gmail.com",
    "phone": "0799597590",
    "country": "Cayman Islands",
    "city": "Woodrowbury",
    "street": "2493 Serena Parkway",
    "type": "Private"
  },
  {
    "id": 26,
    "company": "Bartell Inc",
    "contact": "Thomas Farrell",
    "email": "nellie.labadie58@gmail.com",
    "phone": "0775260139",
    "country": "Faroe Islands",
    "city": "West Terence",
    "street": "057 Nicolas Mills",
    "type": "Co-operative"
  },
  {
    "id": 27,
    "company": "Stokes - Padberg",
    "contact": "Ramona Bergnaum PhD",
    "email": "gwendolyn_gutmann@yahoo.com",
    "phone": "0781978996",
    "country": "Macao",
    "city": "New Joanneland",
    "street": "75895 Welch Key",
    "type": "Private"
  },
  {
    "id": 28,
    "company": "Johns Group",
    "contact": "Kay Champlin",
    "email": "dashawn84@hotmail.com",
    "phone": "0794049597",
    "country": "Gibraltar",
    "city": "Fadelfurt",
    "street": "59506 Schamberger Mountain",
    "type": "Franchise"
  },
  {
    "id": 29,
    "company": "Hand LLC",
    "contact": "Isaac Muller",
    "email": "myriam51@gmail.com",
    "phone": "0782406089",
    "country": "Cayman Islands",
    "city": "East Carrie",
    "street": "063 Ethan Ville",
    "type": "Charity"
  },
  {
    "id": 30,
    "company": "Walker and Sons",
    "contact": "Jeremiah McDermott I",
    "email": "lysanne.renner@hotmail.com",
    "phone": "0721338469",
    "country": "Yemen",
    "city": "Mosciskishire",
    "street": "98297 Kshlerin Trace",
    "type": "Public"
  },
  {
    "id": 31,
    "company": "Hyatt - Bechtelar",
    "contact": "Erma Russel",
    "email": "ernie23@gmail.com",
    "phone": "0750591722",
    "country": "El Salvador",
    "city": "Herminiomouth",
    "street": "112 McKenzie Wall",
    "type": "Private"
  },
  {
    "id": 32,
    "company": "Hessel - Fay",
    "contact": "Shawn Collins",
    "email": "nathanial28@gmail.com",
    "phone": "0756016493",
    "country": "Albania",
    "city": "East Providencishire",
    "street": "6320 Simonis Glen",
    "type": "Charity"
  },
  {
    "id": 33,
    "company": "Conroy, Hettinger and Moore",
    "contact": "Dr. Raul O'Connell",
    "email": "missouri.terry@yahoo.com",
    "phone": "0740230470",
    "country": "Denmark",
    "city": "Kihnport",
    "street": "81250 Cormier Circles",
    "type": "Private"
  },
  {
    "id": 34,
    "company": "Wehner, Parisian and Weissnat",
    "contact": "Gwendolyn Grimes",
    "email": "kobe91@hotmail.com",
    "phone": "0715407298",
    "country": "Isle of Man",
    "city": "Port Edna",
    "street": "39000 Pfannerstill Corners",
    "type": "Charity"
  },
  {
    "id": 35,
    "company": "Keeling, Yundt and Herzog",
    "contact": "Ana Stanton",
    "email": "lue_haag62@hotmail.com",
    "phone": "0734611287",
    "country": "Mayotte",
    "city": "West Evelineview",
    "street": "31339 Monty Shores",
    "type": "Co-operative"
  },
  {
    "id": 36,
    "company": "Collier - Reynolds",
    "contact": "Roderick Stracke",
    "email": "shea75@hotmail.com",
    "phone": "0723423617",
    "country": "Argentina",
    "city": "Angelinaton",
    "street": "538 Barrows Forge",
    "type": "Franchise"
  },
  {
    "id": 37,
    "company": "Hand, Mayer and Baumbach",
    "contact": "Dora Ratke",
    "email": "ebba_sauer57@gmail.com",
    "phone": "0737299997",
    "country": "India",
    "city": "Lake Marielleburgh",
    "street": "802 Rice Causeway",
    "type": "Charity"
  },
  {
    "id": 38,
    "company": "Hammes Inc",
    "contact": "Hugh Legros",
    "email": "madaline.hickle91@yahoo.com",
    "phone": "0748334861",
    "country": "Palau",
    "city": "Port Olen",
    "street": "60010 Daniel Rapids",
    "type": "Co-operative"
  },
  {
    "id": 39,
    "company": "Vandervort, Bayer and Renner",
    "contact": "Derek Cassin",
    "email": "layla.hoeger@gmail.com",
    "phone": "0742414426",
    "country": "United States Minor Outlying Islands",
    "city": "Daphneefurt",
    "street": "1463 Kunze Islands",
    "type": "Co-operative"
  },
  {
    "id": 40,
    "company": "Nikolaus, Cronin and Effertz",
    "contact": "Darryl Langworth I",
    "email": "abner_runolfsson@yahoo.com",
    "phone": "0712791693",
    "country": "Armenia",
    "city": "East Morganchester",
    "street": "0837 Christina Turnpike",
    "type": "Co-operative"
  },
  {
    "id": 41,
    "company": "Aufderhar Group",
    "contact": "Latoya Maggio",
    "email": "fabiola23@yahoo.com",
    "phone": "0745127730",
    "country": "Bhutan",
    "city": "North Malindaland",
    "street": "00743 Porter Wall",
    "type": "Public"
  },
  {
    "id": 42,
    "company": "Stehr, Mayer and Moore",
    "contact": "Anna Pfeffer",
    "email": "lesley_mckenzie50@hotmail.com",
    "phone": "0708400741",
    "country": "French Guiana",
    "city": "Port Dejon",
    "street": "012 Gaylord Fort",
    "type": "Private"
  },
  {
    "id": 43,
    "company": "Koelpin, Stark and Bernhard",
    "contact": "Anna Ullrich",
    "email": "mikel.johnston24@gmail.com",
    "phone": "0778784174",
    "country": "Virgin Islands, British",
    "city": "South Pedroport",
    "street": "23539 Graham Bridge",
    "type": "Co-operative"
  },
  {
    "id": 44,
    "company": "Stiedemann, Becker and Kunze",
    "contact": "Gerardo Auer",
    "email": "jacynthe.quitzon21@gmail.com",
    "phone": "0716281690",
    "country": "Equatorial Guinea",
    "city": "Hilllside",
    "street": "29754 Abdullah Ports",
    "type": "Franchise"
  },
  {
    "id": 45,
    "company": "Ruecker, Marvin and Jacobson",
    "contact": "Mrs. Rita Witting",
    "email": "alf64@hotmail.com",
    "phone": "0711343964",
    "country": "Brazil",
    "city": "Feilfurt",
    "street": "2628 Yesenia Village",
    "type": "Franchise"
  },
  {
    "id": 46,
    "company": "Gulgowski LLC",
    "contact": "Freda Kuphal",
    "email": "laury_berge36@gmail.com",
    "phone": "0727267433",
    "country": "Mauritania",
    "city": "West Lois",
    "street": "493 Huels Heights",
    "type": "Franchise"
  },
  {
    "id": 47,
    "company": "Murray Group",
    "contact": "Desiree Hoppe",
    "email": "trey_murphy33@gmail.com",
    "phone": "0707809186",
    "country": "Sierra Leone",
    "city": "South Davion",
    "street": "37248 Anderson Road",
    "type": "Public"
  },
  {
    "id": 48,
    "company": "Kohler, Hickle and Rohan",
    "contact": "Maurice Bernier",
    "email": "cordia_keeling39@gmail.com",
    "phone": "0731083419",
    "country": "Panama",
    "city": "West Ervinview",
    "street": "904 Carroll Trace",
    "type": "Franchise"
  },
  {
    "id": 49,
    "company": "Ruecker, Gulgowski and Schuppe",
    "contact": "Vickie Runolfsdottir",
    "email": "christelle73@yahoo.com",
    "phone": "0703952885",
    "country": "Guinea-Bissau",
    "city": "Port Kelly",
    "street": "1300 Greenfelder Harbors",
    "type": "Franchise"
  },
  {
    "id": 50,
    "company": "Herman, Barrows and Rutherford",
    "contact": "Miguel Zieme",
    "email": "ciara.pagac60@hotmail.com",
    "phone": "0774224115",
    "country": "Tonga",
    "city": "Leopoldoton",
    "street": "001 Brock Lane",
    "type": "Private"
  },
  {
    "id": 51,
    "company": "Hane Inc",
    "contact": "Karen Abbott III",
    "email": "nicholaus.kozey@yahoo.com",
    "phone": "0790477617",
    "country": "Jersey",
    "city": "North Zachary",
    "street": "00196 O'Reilly Circle",
    "type": "Private"
  },
  {
    "id": 52,
    "company": "Stroman - Schmidt",
    "contact": "Lula Carroll",
    "email": "sibyl95@hotmail.com",
    "phone": "0781779014",
    "country": "Djibouti",
    "city": "East Shaynamouth",
    "street": "74638 Novella Walk",
    "type": "Charity"
  },
  {
    "id": 53,
    "company": "Olson LLC",
    "contact": "Colin Howell I",
    "email": "everardo_toy@yahoo.com",
    "phone": "0754881361",
    "country": "Qatar",
    "city": "Port Camron",
    "street": "589 Wolf Courts",
    "type": "Public"
  },
  {
    "id": 54,
    "company": "Mitchell Group",
    "contact": "James Flatley",
    "email": "sydnie.douglas2@yahoo.com",
    "phone": "0733398860",
    "country": "Martinique",
    "city": "North Meggie",
    "street": "097 Heather Trail",
    "type": "Charity"
  },
  {
    "id": 55,
    "company": "Lubowitz Group",
    "contact": "Matthew Medhurst",
    "email": "annette.kshlerin2@yahoo.com",
    "phone": "0785872548",
    "country": "Cayman Islands",
    "city": "Port Stanley",
    "street": "0772 Pacocha Trail",
    "type": "Co-operative"
  },
  {
    "id": 56,
    "company": "Rohan, Spencer and Beier",
    "contact": "Lynn Walter",
    "email": "zoe67@yahoo.com",
    "phone": "0796175856",
    "country": "Turkmenistan",
    "city": "East Vedaburgh",
    "street": "7675 Ewald Mountains",
    "type": "Charity"
  },
  {
    "id": 57,
    "company": "Breitenberg, Davis and Leuschke",
    "contact": "Larry Pacocha",
    "email": "margie78@yahoo.com",
    "phone": "0701111755",
    "country": "Kuwait",
    "city": "Roelton",
    "street": "206 Marilou Cove",
    "type": "Co-operative"
  },
  {
    "id": 58,
    "company": "Gerhold - Smith",
    "contact": "Megan Turcotte",
    "email": "zella.stokes7@gmail.com",
    "phone": "0701237639",
    "country": "Netherlands",
    "city": "West Dorthystad",
    "street": "963 Steuber Trace",
    "type": "Public"
  },
  {
    "id": 59,
    "company": "Hudson and Sons",
    "contact": "Clayton Gerhold",
    "email": "terence54@hotmail.com",
    "phone": "0756945100",
    "country": "Central African Republic",
    "city": "North Lily",
    "street": "8415 Stehr Harbors",
    "type": "Charity"
  },
  {
    "id": 60,
    "company": "MacGyver and Sons",
    "contact": "Sylvia Nader",
    "email": "kaden_ohara@yahoo.com",
    "phone": "0795957830",
    "country": "Afghanistan",
    "city": "Port Tyshawnfort",
    "street": "55811 Grant Walk",
    "type": "Co-operative"
  },
  {
    "id": 61,
    "company": "Gleichner LLC",
    "contact": "Arthur Roob",
    "email": "destiney.roberts@gmail.com",
    "phone": "0767427000",
    "country": "United Arab Emirates",
    "city": "South Susan",
    "street": "675 Dandre Path",
    "type": "Franchise"
  },
  {
    "id": 62,
    "company": "Stracke - Purdy",
    "contact": "Sue Okuneva",
    "email": "dominique_kub@gmail.com",
    "phone": "0768520374",
    "country": "Liberia",
    "city": "Lourdesport",
    "street": "8505 Witting Estates",
    "type": "Co-operative"
  },
  {
    "id": 63,
    "company": "Schaden, Upton and O'Keefe",
    "contact": "Mrs. Orlando Batz",
    "email": "cheyanne_yundt70@yahoo.com",
    "phone": "0798042566",
    "country": "Lao People's Democratic Republic",
    "city": "South Clarabelleton",
    "street": "00591 Wisozk Burg",
    "type": "Charity"
  },
  {
    "id": 64,
    "company": "Corwin, Bauch and Stanton",
    "contact": "Percy Cummings",
    "email": "hoyt_schaefer@yahoo.com",
    "phone": "0787760899",
    "country": "Thailand",
    "city": "South Kadin",
    "street": "61953 Schmitt Harbor",
    "type": "Co-operative"
  },
  {
    "id": 65,
    "company": "Swaniawski and Sons",
    "contact": "Alison Gibson",
    "email": "candace_huel@hotmail.com",
    "phone": "0736698365",
    "country": "United States of America",
    "city": "Hahnchester",
    "street": "11086 Christopher Union",
    "type": "Co-operative"
  },
  {
    "id": 66,
    "company": "Johns, Schroeder and Haley",
    "contact": "Brandon Crooks",
    "email": "maurine_yost68@gmail.com",
    "phone": "0793083923",
    "country": "Tuvalu",
    "city": "Quintenport",
    "street": "85640 Skyla Stream",
    "type": "Charity"
  },
  {
    "id": 67,
    "company": "Ritchie and Sons",
    "contact": "Dawn Mills",
    "email": "macy.sanford@gmail.com",
    "phone": "0756424245",
    "country": "Niue",
    "city": "Turcottemouth",
    "street": "305 Reagan Loop",
    "type": "Public"
  },
  {
    "id": 68,
    "company": "Sawayn - Gusikowski",
    "contact": "Johnathan Weber",
    "email": "felix.bernier70@gmail.com",
    "phone": "0792429643",
    "country": "Samoa",
    "city": "Cristopherland",
    "street": "762 Wilhelmine Hill",
    "type": "Charity"
  },
  {
    "id": 69,
    "company": "Gaylord - Green",
    "contact": "Salvador Little",
    "email": "cheyanne.schinner78@hotmail.com",
    "phone": "0715267948",
    "country": "Jordan",
    "city": "Estevanborough",
    "street": "42690 Garland Orchard",
    "type": "Co-operative"
  },
  {
    "id": 70,
    "company": "Thompson - Shanahan",
    "contact": "Lucia Pfannerstill",
    "email": "dominic.padberg@yahoo.com",
    "phone": "0738149888",
    "country": "Solomon Islands",
    "city": "Greenholtburgh",
    "street": "956 Korey Island",
    "type": "Public"
  },
  {
    "id": 71,
    "company": "Dietrich and Sons",
    "contact": "Jaime Kling",
    "email": "horacio_walker49@gmail.com",
    "phone": "0724657989",
    "country": "Solomon Islands",
    "city": "Kovacektown",
    "street": "3720 Donavon Trail",
    "type": "Private"
  },
  {
    "id": 72,
    "company": "Steuber, Schuster and Schultz",
    "contact": "Felicia Kris PhD",
    "email": "hunter_kutch31@gmail.com",
    "phone": "0790512627",
    "country": "Rwanda",
    "city": "Allietown",
    "street": "4932 Wilber Shoal",
    "type": "Charity"
  },
  {
    "id": 73,
    "company": "Botsford - Boehm",
    "contact": "Mae Hermiston",
    "email": "perry96@yahoo.com",
    "phone": "0743887641",
    "country": "Colombia",
    "city": "Rickyville",
    "street": "220 Haley Ridge",
    "type": "Franchise"
  },
  {
    "id": 74,
    "company": "Tillman, Balistreri and Keebler",
    "contact": "Mr. Wm Oberbrunner",
    "email": "dorothea45@hotmail.com",
    "phone": "0740289555",
    "country": "Uruguay",
    "city": "Delilahton",
    "street": "13486 Kim Wall",
    "type": "Private"
  },
  {
    "id": 75,
    "company": "Bins - Cartwright",
    "contact": "Miss Alison Haley",
    "email": "flossie.medhurst@gmail.com",
    "phone": "0714844235",
    "country": "United Kingdom",
    "city": "North Trisha",
    "street": "98830 Daugherty Mill",
    "type": "Charity"
  },
  {
    "id": 76,
    "company": "Fay, Pfannerstill and Bosco",
    "contact": "June Lehner",
    "email": "talia70@yahoo.com",
    "phone": "0723091879",
    "country": "Afghanistan",
    "city": "Port Luzmouth",
    "street": "3434 Beer Crescent",
    "type": "Public"
  },
  {
    "id": 77,
    "company": "Barrows, Bashirian and Kreiger",
    "contact": "Leslie Reinger",
    "email": "bradley_roob68@hotmail.com",
    "phone": "0721808357",
    "country": "Northern Mariana Islands",
    "city": "Hahnstad",
    "street": "362 Gutmann Islands",
    "type": "Charity"
  },
  {
    "id": 78,
    "company": "Koss - Lubowitz",
    "contact": "Mr. Elena Nicolas",
    "email": "emelie98@gmail.com",
    "phone": "0700079002",
    "country": "Djibouti",
    "city": "New Genevieveville",
    "street": "94590 George Cape",
    "type": "Co-operative"
  },
  {
    "id": 79,
    "company": "Huels - Schmeler",
    "contact": "Tim Crona",
    "email": "karolann74@gmail.com",
    "phone": "0780245991",
    "country": "Kuwait",
    "city": "Port Kayden",
    "street": "7244 Charity River",
    "type": "Franchise"
  },
  {
    "id": 80,
    "company": "Collier - Renner",
    "contact": "Clyde Schaden",
    "email": "marietta_davis@yahoo.com",
    "phone": "0763571799",
    "country": "Libyan Arab Jamahiriya",
    "city": "Lake Taylor",
    "street": "261 Guillermo Inlet",
    "type": "Franchise"
  },
  {
    "id": 81,
    "company": "Dach, Sipes and Windler",
    "contact": "Gordon Leffler IV",
    "email": "lilian_lakin@hotmail.com",
    "phone": "0795958733",
    "country": "Cyprus",
    "city": "Reynoldstown",
    "street": "2874 Vicente Centers",
    "type": "Co-operative"
  },
  {
    "id": 82,
    "company": "Rutherford LLC",
    "contact": "Ms. Francis Strosin",
    "email": "demetris52@yahoo.com",
    "phone": "0714318708",
    "country": "Iraq",
    "city": "Erdmanberg",
    "street": "44381 Haag Spur",
    "type": "Co-operative"
  },
  {
    "id": 83,
    "company": "Balistreri, Klocko and Pfannerstill",
    "contact": "Beth Considine",
    "email": "pierce57@gmail.com",
    "phone": "0759843001",
    "country": "Slovakia (Slovak Republic)",
    "city": "Merrittfort",
    "street": "202 Elna Dale",
    "type": "Private"
  },
  {
    "id": 84,
    "company": "Hudson - Morissette",
    "contact": "Doyle Barrows Jr.",
    "email": "shaniya16@yahoo.com",
    "phone": "0797066776",
    "country": "Saint Barthelemy",
    "city": "Millerfurt",
    "street": "45046 Gregory Forks",
    "type": "Public"
  },
  {
    "id": 85,
    "company": "Weimann and Sons",
    "contact": "Roy Hoppe IV",
    "email": "austyn19@gmail.com",
    "phone": "0744575719",
    "country": "Tajikistan",
    "city": "New Boydport",
    "street": "671 Donald Road",
    "type": "Co-operative"
  },
  {
    "id": 86,
    "company": "Hahn - Leannon",
    "contact": "Lorenzo Greenfelder",
    "email": "asha41@hotmail.com",
    "phone": "0707990068",
    "country": "Bosnia and Herzegovina",
    "city": "Lake Liliana",
    "street": "956 Madelynn Ridge",
    "type": "Charity"
  },
  {
    "id": 87,
    "company": "Schmeler, Gislason and Stoltenberg",
    "contact": "Pamela Gaylord",
    "email": "adella74@yahoo.com",
    "phone": "0765447235",
    "country": "Svalbard & Jan Mayen Islands",
    "city": "West Augustborough",
    "street": "32007 Kerluke Route",
    "type": "Charity"
  },
  {
    "id": 88,
    "company": "Zulauf, Dickens and Aufderhar",
    "contact": "Dr. Wendell Moore",
    "email": "juana8@gmail.com",
    "phone": "0778052389",
    "country": "Trinidad and Tobago",
    "city": "Port Gayle",
    "street": "557 Bogisich Neck",
    "type": "Private"
  },
  {
    "id": 89,
    "company": "Terry, White and Morar",
    "contact": "Darren Schmitt",
    "email": "bailee.hegmann@gmail.com",
    "phone": "0758594035",
    "country": "Somalia",
    "city": "Danhaven",
    "street": "1318 Yessenia Road",
    "type": "Public"
  },
  {
    "id": 90,
    "company": "Walsh - Lebsack",
    "contact": "Dr. Jeffery Zulauf",
    "email": "gennaro.marks5@gmail.com",
    "phone": "0747754328",
    "country": "Saint Pierre and Miquelon",
    "city": "East Rashadview",
    "street": "5974 Chadd Circles",
    "type": "Co-operative"
  },
  {
    "id": 91,
    "company": "Bayer LLC",
    "contact": "Erma Swift MD",
    "email": "jordon_mcdermott88@yahoo.com",
    "phone": "0713489182",
    "country": "Holy See (Vatican City State)",
    "city": "Ferminbury",
    "street": "354 Magdalena Fields",
    "type": "Franchise"
  },
  {
    "id": 92,
    "company": "Konopelski and Sons",
    "contact": "Jeremy Carroll",
    "email": "felix73@gmail.com",
    "phone": "0726154203",
    "country": "Macao",
    "city": "North Donberg",
    "street": "118 Murl Course",
    "type": "Franchise"
  },
  {
    "id": 93,
    "company": "Pagac, Hyatt and Dare",
    "contact": "Jon Fadel",
    "email": "clementine27@hotmail.com",
    "phone": "0772556521",
    "country": "United Kingdom",
    "city": "Ebertshire",
    "street": "75519 Winnifred Manor",
    "type": "Charity"
  },
  {
    "id": 94,
    "company": "DuBuque, Strosin and Torp",
    "contact": "Shari Ward",
    "email": "king48@yahoo.com",
    "phone": "0768763258",
    "country": "Cook Islands",
    "city": "Quigleyhaven",
    "street": "875 Turner Villages",
    "type": "Co-operative"
  },
  {
    "id": 95,
    "company": "Moore, Erdman and Casper",
    "contact": "Ray Lang I",
    "email": "mitchell.kassulke13@yahoo.com",
    "phone": "0799761258",
    "country": "Benin",
    "city": "Weimannberg",
    "street": "4737 Rice Estate",
    "type": "Public"
  },
  {
    "id": 96,
    "company": "Toy Group",
    "contact": "Manuel Hills",
    "email": "theresa.brekke@yahoo.com",
    "phone": "0735213919",
    "country": "Croatia",
    "city": "Cierraport",
    "street": "7297 Cronin Rue",
    "type": "Charity"
  },
  {
    "id": 97,
    "company": "Harber - Raynor",
    "contact": "Dr. Ralph Breitenberg",
    "email": "jacky.powlowski@hotmail.com",
    "phone": "0771945986",
    "country": "Barbados",
    "city": "New Hillard",
    "street": "6797 Gage Valleys",
    "type": "Private"
  },
  {
    "id": 98,
    "company": "Oberbrunner LLC",
    "contact": "Wilbert Zieme",
    "email": "gerda.braun@gmail.com",
    "phone": "0741492980",
    "country": "Sudan",
    "city": "Marvinburgh",
    "street": "03937 Denesik Track",
    "type": "Private"
  }
]
